digraph "Utilities/StringUtil.hpp"
{
 // LATEX_PDF_SIZE
  edge [fontname="Helvetica",fontsize="10",labelfontname="Helvetica",labelfontsize="10"];
  node [fontname="Helvetica",fontsize="10",shape=record];
  Node1 [label="Utilities/StringUtil.hpp",height=0.2,width=0.4,color="black", fillcolor="grey75", style="filled", fontcolor="black",tooltip=" "];
  Node1 -> Node2 [dir="back",color="midnightblue",fontsize="10",style="solid",fontname="Helvetica"];
  Node2 [label="cuTEST/TesterBase.cpp",height=0.2,width=0.4,color="black", fillcolor="white", style="filled",URL="$TesterBase_8cpp.html",tooltip=" "];
  Node1 -> Node3 [dir="back",color="midnightblue",fontsize="10",style="solid",fontname="Helvetica"];
  Node3 [label="DataStructure/BinarySearch\lTreeTester.hpp",height=0.2,width=0.4,color="black", fillcolor="white", style="filled",URL="$BinarySearchTreeTester_8hpp.html",tooltip=" "];
  Node3 -> Node4 [dir="back",color="midnightblue",fontsize="10",style="solid",fontname="Helvetica"];
  Node4 [label="main.cpp",height=0.2,width=0.4,color="black", fillcolor="white", style="filled",URL="$main_8cpp.html",tooltip=" "];
  Node1 -> Node5 [dir="back",color="midnightblue",fontsize="10",style="solid",fontname="Helvetica"];
  Node5 [label="Utilities/StringUtil.cpp",height=0.2,width=0.4,color="black", fillcolor="white", style="filled",URL="$StringUtil_8cpp.html",tooltip=" "];
}
